5,5,0.035415,,20,20,0.4334745,
5,4.75,0.034586,,20,19,0.41581728,
5,4.5,0.033802,,20,18,0.39753072,
5,4.25,0.033136,,20,17,0.37833279,
5,4,0.032516,,20,16,0.35860752,
5,3.75,0.031967,,20,15,0.338294475,
5,3.5,0.031444,,20,14,0.31760862,
5,3.25,0.03098,,20,13,0.29646045,
5,3,0.030575,,20,12,0.2748951,
5,2.75,0.030204,,20,11,0.25302783,
5,2.5,0.029874,,20,10,0.2308668,
5,2.25,0.02959,,20,9,0.2084319,
5,2,0.029332,,20,8,0.18579912,
5,1.75,0.029118,,20,7,0.16295622,
5,1.5,0.02893,,20,6,0.1399644,
5,1.25,0.028775,,20,5,0.116834625,
5,1,0.028653,,20,4,0.09359214,
5,0.75,0.028556,,20,3,0.07026831,
5,0.5,0.02849,,20,2,0.0468792,
5,0.25,0.02845,,20,1,0.0234498,
4.75,5,0.03803,,19,20,0.420138,
4.75,4.75,0.037056,,19,19,0.40385013,
4.75,4.5,0.036169,,19,18,0.38666619,
4.75,4.25,0.035359,,19,17,0.368696085,
4.75,4,0.034591,,19,16,0.35014152,
4.75,3.75,0.033938,,19,15,0.3307554,
4.75,3.5,0.033343,,19,14,0.31082919,
4.75,3.25,0.032792,,19,13,0.29045367,
4.75,3,0.03229,,19,12,0.2696472,
4.75,2.75,0.031869,,19,11,0.248357505,
4.75,2.5,0.031478,,19,10,0.2267766,
4.75,2.25,0.031142,,19,9,0.20487006,
4.75,2,0.030847,,19,8,0.18270852,
4.75,1.75,0.030569,,19,7,0.160366185,
4.75,1.5,0.030362,,19,6,0.13777344,
4.75,1.25,0.030182,,19,5,0.1150407,
4.75,1,0.030033,,19,4,0.09218454,
4.75,0.75,0.029923,,19,3,0.069222555, 
4.75,0.5,0.029842,,19,2,0.04618968,
4.75,0.25,0.029794,,19,1,0.02310708,
4.5,5,0.0411,,18,20,0.404481,
4.5,4.75,0.039921,,18,19,0.389969205,
4.5,4.5,0.038915,,18,18,0.37406205,
4.5,4.25,0.037906,,18,17,0.35765484,
4.5,4,0.037074,,18,16,0.34001088,
4.5,3.75,0.036264,,18,15,0.32185845,
4.5,3.5,0.035337,,18,14,0.30371061,
4.5,3.25,0.034905,,18,13,0.283449075,
4.5,3,0.034312,,18,12,0.26345988,
4.5,2.75,0.033795,,18,11,0.242955075,
4.5,2.5,0.033333,,18,10,0.22204635,
4.5,2.25,0.032932,,18,9,0.20076201,
4.5,2,0.032565,,18,8,0.1792038,
4.5,1.75,0.032277,,18,7,0.157317405,
4.5,1.5,0.032022,,18,6,0.13523364,
4.5,1.25,0.031808,,18,5,0.11296755,
4.5,1,0.031627,,18,4,0.09055866,
4.5,0.75,0.031495,,18,3,0.068019975,
4.5,0.5,0.031401,,18,2,0.04539459,
4.5,0.25,0.031344,,18,1,0.02271183,
4.25,5,0.044708,,17,20,0.3860802,
4.25,4.75,0.043247,,17,19,0.373854735,
4.25,4.5,0.042003,,17,18,0.35988813,
4.25,4.25,0.040884,,17,17,0.34474521,
4.25,4,0.0398,,17,16,0.3288888,
4.25,3.75,0.038928,,17,15,0.31166865,
4.25,3.5,0.038072,,17,14,0.29394666,
4.25,3.25,0.037289,,17,13,0.275546115,
4.25,3,0.036591,,17,12,0.25648614,
4.25,2.75,0.03601,,17,11,0.236742,
4.25,2.5,0.035466,,17,10,0.2166072,
4.25,2.25,0.034992,,17,9,0.19603431,
4.25,2,0.034558,,17,8,0.17513808,
4.25,1.75,0.034217,,17,7,0.153854505,
4.25,1.5,0.033906,,17,6,0.13235112,
4.25,1.25,0.033667,,17,5,0.110597325,
4.25,1,0.033467,,17,4,0.08868186,
4.25,0.75,0.033302,,17,3,0.06663762,
4.25,0.5,0.033191,,17,2,0.04448169,
4.25,0.25,0.033123,,17,1,0.022258185,
4,5,0.048702,,16,20,0.3657108,
4,4.75,0.047061,,16,19,0.355375905,
4,4.5,0.045566,,16,18,0.34353396,
4,4.25,0.044309,,16,17,0.329897835,
4,4,0.043066,,16,16,0.31556352,
4,3.75,0.041965,,16,15,0.300052125,
4,3.5,0.040967,,16,14,0.28361151,
4,3.25,0.040049,,16,13,0.266396715,
4,3,0.039246,,16,12,0.24836184,
4,2.75,0.038548,,16,11,0.22962291,
4,2.5,0.037954,,16,10,0.2102628,
4,2.25,0.037356,,16,9,0.19060893,
4,2,0.036871,,16,8,0.17041956,
4,1.75,0.036449,,16,7,0.149870385,
4,1.5,0.036097,,16,6,0.12899889,
4,1.25,0.035808,,16,5,0.10786755,
4,1,0.035556,,16,4,0.08655108,
4,0.75,0.035372,,16,3,0.06505407,
4,0.5,0.035237,,16,2,0.04343823,
4,0.25,0.035161,,16,1,0.021738495,
3.75,5,0.053398,,15,20,0.3417612,
3.75,4.75,0.051478,,15,19,0.33397554,
3.75,4.5,0.049712,,15,18,0.32450382,
3.75,4.25,0.048157,,15,17,0.313216755,
3.75,4,0.046777,,15,16,0.30042264,
3.75,3.75,0.045426,,15,15,0.2868138,
3.75,3.5,0.044267,,15,14,0.27183051,
3.75,3.25,0.043226,,15,13,0.25586496,
3.75,3,0.042319,,15,12,0.23895846,
3.75,2.75,0.041457,,15,11,0.221463165,
3.75,2.5,0.040726,,15,10,0.2031942,
3.75,2.25,0.040078,,15,9,0.18436194,
3.75,2,0.0395,,15,8,0.1650564,
3.75,1.75,0.039022,,15,7,0.14527758,
3.75,1.5,0.038582,,15,6,0.12519684,
3.75,1.25,0.038231,,15,5,0.104778225,
3.75,1,0.037956,,15,4,0.08410308,
3.75,0.75,0.03778,,15,3,0.06321195,
3.75,0.5,0.037585,,15,2,0.04224075,
3.75,0.25,0.037493,,15,1,0.021143835,
3.5,5,0.058746,,14,20,0.3144864,
3.5,4.75,0.056488,,14,19,0.30970209,
3.5,4.5,0.054411,,14,18,0.30293541,
3.5,4.25,0.052609,,14,17,0.293917335,
3.5,4,0.05092,,14,16,0.2835192,
3.5,3.75,0.049467,,14,15,0.271356975,
3.5,3.5,0.048056,,14,14,0.25830378,
3.5,3.25,0.046862,,14,13,0.24381162,
3.5,3,0.045812,,14,12,0.22826988,
3.5,2.75,0.044796,,14,11,0.21209727,
3.5,2.5,0.043922,,14,10,0.1950444,
3.5,2.25,0.04317,,14,9,0.1772658,
3.5,2,0.04249,,14,8,0.1589568,
3.5,1.75,0.041912,,14,7,0.14011893,
3.5,1.5,0.041409,,14,6,0.12087153,
3.5,1.25,0.041008,,14,5,0.10123755,
3.5,1,0.040685,,14,4,0.0813195,
3.5,0.75,0.040432,,14,3,0.06118317,
3.5,0.5,0.040255,,14,2,0.04087905,
3.5,0.25,0.040147,,14,1,0.020467065,
3.25,5,0.064789,,13,20,0.2836671,
3.25,4.75,0.06218,,13,19,0.28212435,
3.25,4.5,0.059756,,13,18,0.27840186,
3.25,4.25,0.057754,,13,17,0.27161376,
3.25,4,0.055698,,13,16,0.26402496,
3.25,3.75,0.053998,,13,15,0.2540259,
3.25,3.5,0.052364,,13,14,0.24292422,
3.25,3.25,0.050999,,13,13,0.230097465,
3.25,3,0.049687,,13,12,0.21641238,
3.25,2.75,0.048573,,13,11,0.201502785,
3.25,2.5,0.047556,,13,10,0.1857777,
3.25,2.25,0.046671,,13,9,0.169231005,
3.25,2,0.045886,,13,8,0.15202896,
3.25,1.75,0.045233,,13,7,0.134190945,
3.25,1.5,0.044647,,13,6,0.11591739,
3.25,1.25,0.044178,,13,5,0.0971958,
3.25,1,0.043795,,13,4,0.0781473,
3.25,0.75,0.043505,,13,3,0.058832325,
3.25,0.5,0.043304,,13,2,0.03932406,
3.25,0.25,0.043171,,13,1,0.019695945,
3,5,0.071521,,12,20,0.2493339,
3,4.75,0.068569,,12,19,0.251169645,
3,4.5,0.065742,,12,18,0.25092612,
3,4.25,0.063364,,12,17,0.24729441,
3,4,0.061223,,12,16,0.24148296,
3,3.75,0.059152,,12,15,0.23431185,
3,3.5,0.057251,,12,14,0.22547763,
3,3.25,0.055686,,12,13,0.21456006,
3,3,0.054177,,12,12,0.20267298,
3,2.75,0.052871,,12,11,0.189446895,
3,2.5,0.051716,,12,10,0.1751697,
3,2.25,0.050689,,12,9,0.160009695,
3,2,0.049747,,12,8,0.14415252,
3,1.75,0.048996,,12,7,0.12747399,
3,1.5,0.048317,,12,6,0.11030229,
3,1.25,0.047758,,12,5,0.0926313,
3,1,0.047311,,12,4,0.07456098,
3,0.75,0.046985,,12,3,0.056170125,
3,0.5,0.046744,,12,2,0.03756966,
3,0.25,0.046593,,12,1,0.018823335,
2.75,5,0.078862,,11,20,0.2118948,
2.75,4.75,0.075696,,11,19,0.21663933,
2.75,4.5,0.072637,,11,18,0.21927807,
2.75,4.25,0.0698,,11,17,0.21939435,
2.75,4,0.067221,,11,16,0.21701112,
2.75,3.75,0.064927,,11,15,0.212222475,
2.75,3.5,0.062858,,11,14,0.20546064,
2.75,3.25,0.060965,,11,13,0.197060175,
2.75,3,0.059158,,11,12,0.18743112,
2.75,2.75,0.057743,,11,11,0.175780935,
2.75,2.5,0.056368,,11,10,0.1633071,
2.75,2.25,0.055239,,11,9,0.149567445,
2.75,2,0.054147,,11,8,0.13517652,
2.75,1.75,0.053211,,11,7,0.119950215,
2.75,1.5,0.052472,,11,6,0.10394514,
2.75,1.25,0.05182,,11,5,0.08745225,
2.75,1,0.051315,,11,4,0.0704769,
2.75,0.75,0.05091,,11,3,0.0531675,
2.75,0.5,0.050623,,11,2,0.03559137,
2.75,0.25,0.050455,,11,1,0.017838525,
2.5,5,0.087053,,10,20,0.1701207,
2.5,4.75,0.083441,,10,19,0.179114805,
2.5,4.5,0.079942,,10,18,0.18574812,
2.5,4.25,0.076826,,10,17,0.18893664,
2.5,4,0.074039,,10,16,0.18919368,
2.5,3.75,0.071434,,10,15,0.1873332,
2.5,3.5,0.071353,,10,14,0.17513349,
2.5,3.25,0.066818,,10,13,0.17765748,
2.5,3,0.064939,,10,12,0.16974126,
2.5,2.75,0.063213,,10,11,0.160437585,
2.5,2.5,0.061611,,10,10,0.14993745,
2.5,2.25,0.060253,,10,9,0.138060315,
2.5,2,0.058983,,10,8,0.12531108,
2.5,1.75,0.058008,,10,7,0.11138757,
2.5,1.5,0.057093,,10,6,0.09687501,
2.5,1.25,0.056366,,10,5,0.0816561,
2.5,1,0.055764,,10,4,0.06593892,
2.5,0.75,0.055334,,10,3,0.04978314,
2.5,0.5,0.055003,,10,2,0.03335757,
2.5,0.25,0.054802,,10,1,0.01673004,
2.25,5,0.095533,,9,20,0.1268727,
2.25,4.75,0.091731,,9,19,0.138949755,
2.25,4.5,0.088123,,9,18,0.14819733,
2.25,4.25,0.084617,,9,17,0.155162655,
2.25,4,0.081834,,9,16,0.15739008,
2.25,3.75,0.078612,,9,15,0.15987735,
2.25,3.5,0.075823,,9,14,0.15917559,
2.25,3.25,0.073485,,9,13,0.155556375,
2.25,3,0.071282,,9,12,0.15033168,
2.25,2.75,0.069258,,9,11,0.14348136,
2.25,2.5,0.067481,,9,10,0.13496895,
2.25,2.25,0.065992,,9,9,0.12488931,
2.25,2,0.064475,,9,8,0.1141074,
2.25,1.75,0.063377,,9,7,0.101803905,
2.25,1.5,0.062326,,9,6,0.08886852,
2.25,1.25,0.061472,,9,5,0.07514595,
2.25,1,0.060796,,9,4,0.06080628,
2.25,0.75,0.060275,,9,3,0.046003275,
2.25,0.5,0.059888,,9,2,0.03086622,
2.25,0.25,0.059675,,9,1,0.015487425,
2,5,0.1039,,8,20,0.084201,
2,4.75,0.1007,,8,19,0.09549495,
2,4.5,0.096336,,8,18,0.11049966,
2,4.25,0.092915,,8,17,0.119190825,
2,4,0.089456,,8,16,0.12629232,
2,3.75,0.086292,,8,15,0.13050135,
2,3.5,0.083391,,8,14,0.13215783,
2,3.25,0.080636,,8,13,0.13185081,
2,3,0.078145,,8,12,0.1293309,
2,2.75,0.075948,,8,11,0.12471591,
2,2.5,0.073946,,8,10,0.1184832,
2,2.25,0.072198,,8,9,0.11064654,
2,2,0.070553,,8,8,0.10170828,
2,1.75,0.069316,,8,7,0.09120279,
2,1.5,0.068157,,8,6,0.07994709,
2,1.25,0.067181,,8,5,0.067866975,
2,1,0.066429,,8,4,0.05506062,
2,0.75,0.06583,,8,3,0.0417537,
2,0.5,0.065366,,8,2,0.02807244,
2,0.25,0.06511,,8,1,0.0141015,
1.75,5,0.11117,,7,20,0.047124,
1.75,4.75,0.10801,,7,19,0.060078,
1.75,4.5,0.10466,,7,18,0.0722925,
1.75,4.25,0.10123,,7,17,0.0831453,
1.75,4,0.09778,,7,16,0.0923304,
1.75,3.75,0.094604,,7,15,0.09870795,
1.75,3.5,0.091428,,7,14,0.10346574,
1.75,3.25,0.088649,,7,13,0.105287715,
1.75,3,0.085835,,7,12,0.1057995,
1.75,2.75,0.083348,,7,11,0.10395891,
1.75,2.5,0.081094,,7,10,0.1002558,
1.75,2.25,0.079127,,7,9,0.094744485,
1.75,2,0.07737,,7,8,0.0878016,
1.75,1.75,0.075867,,7,7,0.079509255,
1.75,1.5,0.074628,,7,6,0.07004646,
1.75,1.25,0.073479,,7,5,0.059837025,
1.75,1,0.072581,,7,4,0.04878558,
1.75,0.75,0.071901,,7,3,0.037109385,
1.75,0.5,0.071419,,7,2,0.02498541,
1.75,0.25,0.071129,,7,1,0.012566655,
1.5,5,0.11614,,6,20,0.021777,
1.5,4.75,0.1141,,6,19,0.03057195,
1.5,4.5,0.10877,,6,18,0.0534276,
1.5,4.25,0.10878,,6,17,0.05041605,
1.5,4,0.10579,,6,16,0.0596496,
1.5,3.75,0.10278,,6,15,0.06743475,
1.5,3.5,0.099677,,6,14,0.07401681,
1.5,3.25,0.096725,,6,13,0.078515775,
1.5,3,0.093895,,6,12,0.0811359,
1.5,2.75,0.091354,,6,11,0.08150208,
1.5,2.5,0.088942,,6,10,0.0802434,
1.5,2.25,0.086805,,6,9,0.077123475,
1.5,2,0.084805,,6,8,0.0726342,
1.5,1.75,0.083146,,6,7,0.06651624,
1.5,1.5,0.081663,,6,6,0.05928291,
1.5,1.25,0.080427,,6,5,0.050978325,
1.5,1,0.079448,,6,4,0.04178124,
1.5,0.75,0.078556,,6,3,0.03201831,
1.5,0.5,0.078109,,6,2,0.02157351,
1.5,0.25,0.077775,,6,1,0.010871925,
1.25,5,0.11886,,5,20,0.007905,
1.25,4.75,0.11792,,5,19,0.01206405,
1.25,4.5,0.11652,,5,18,0.0178551,
1.25,4.25,0.11472,,5,17,0.02466615,
1.25,4,0.11267,,5,16,0.0315792,
1.25,3.75,0.11022,,5,15,0.03897675,
1.25,3.5,0.10754,,5,14,0.0459459,
1.25,3.25,0.1049,,5,13,0.05141565,
1.25,3,0.10219,,5,12,0.0557532,
1.25,2.75,0.099648,,5,11,0.05823741,
1.25,2.5,0.097184,,5,10,0.0592263,
1.25,2.25,0.094947,,5,9,0.058437585,
1.25,2,0.092828,,5,8,0.05626728,
1.25,1.75,0.091024,,5,7,0.05245401,
1.25,1.5,0.089445,,5,6,0.04737645,
1.25,1.25,0.0881,,5,5,0.04119525,
1.25,1,0.086927,,5,4,0.03415266,
1.25,0.75,0.086081,,5,3,0.026261685,
1.25,0.5,0.085468,,5,2,0.01782042,
1.25,0.25,0.085086,,5,1,0.00900762,
1,5,0.11994,,4,20,0.002397,
1,4.75,0.1196,,4,19,0.00392445,
1,4.5,0.11908,,4,18,0.0061047,
1,4.25,0.11827,,4,17,0.0092769,
1,4,0.11718,,4,16,0.0131784,
1,3.75,0.11582,,4,15,0.01755675,
1,3.5,0.11404,,4,14,0.0227409,
1,3.25,0.11209,,4,13,0.0275808,
1,3,0.10997,,4,12,0.0319464,
1,2.75,0.10774,,4,11,0.03553935,
1,2.5,0.10656,,4,10,0.0353175,
1,2.25,0.10332,,4,9,0.03922155,
1,2,0.10126,,4,8,0.039066,
1,1.75,0.099413,,4,7,0.037479645,
1,1.5,0.097734,,4,6,0.03469428,
1,1.25,0.096295,,4,5,0.030746625,
1,1,0.095076,,4,4,0.02584068,
1,0.75,0.094133,,4,3,0.020101905,
1,0.5,0.093433,,4,2,0.01375827,
1,0.25,0.093034,,4,1,0.00698088,
0.75,5,0.12025,,3,20,0.000816,
0.75,4.75,0.12018,,3,19,0.00111435,
0.75,4.5,0.12004,,3,18,0.0016983,
0.75,4.25,0.11981,,3,17,0.002601,
0.75,4,0.11946,,3,16,0.003876,
0.75,3.75,0.11894,,3,15,0.00562275,
0.75,3.5,0.11821,,3,14,0.007854,
0.75,3.25,0.11722,,3,13,0.01057485,
0.75,3,0.11597,,3,12,0.0135864,
0.75,2.75,0.11456,,3,11,0.01640925,
0.75,2.5,0.1129,,3,10,0.0191505,
0.75,2.25,0.1121,,3,9,0.01907145,
0.75,2,0.10947,,3,8,0.0223176,
0.75,1.75,0.10781,,3,7,0.022491,
0.75,1.5,0.10624,,3,6,0.0216801,
0.75,1.25,0.10485,,3,5,0.019839,
0.75,1,0.10359,,3,4,0.0171564,
0.75,0.75,0.10263,,3,3,0.0136017,
0.75,0.5,0.1019,,3,2,0.0094401,
0.75,0.25,0.10146,,3,1,0.00483225,
0.5,5,0.12033,,2,20,0.000408,
0.5,4.75,0.12032,,2,19,0.00043605,
0.5,4.5,0.1203,,2,18,0.0005049,
0.5,4.25,0.12027,,2,17,0.0006069,
0.5,4,0.12021,,2,16,0.000816,
0.5,3.75,0.12011,,2,15,0.0011475,
0.5,3.5,0.11995,,2,14,0.0016422,
0.5,3.25,0.11968,,2,13,0.00241995,
0.5,3,0.1193,,2,12,0.0033966,
0.5,2.75,0.11878,,2,11,0.00457215,
0.5,2.5,0.11809,,2,10,0.005916,
0.5,2.25,0.11724,,2,9,0.00727515,
0.5,2,0.11625,,2,8,0.0084864,
0.5,1.75,0.11515,,2,7,0.0093891,
0.5,1.5,0.11402,,2,6,0.0097767,
0.5,1.25,0.11293,,2,5,0.009537,
0.5,1,0.11192,,2,4,0.0086598,
0.5,0.75,0.11105,,2,3,0.0071604,
0.5,0.5,0.111038,,2,2,0.00477972,
0.5,0.25,0.10996,,2,1,0.00266475,
0.25,5,0.12037,,1,20,0.000204,
0.25,4.75,0.12036,,1,19,0.00024225,
0.25,4.5,0.12036,,1,18,0.0002295,
0.25,4.25,0.12035,,1,17,0.0002601,
0.25,4,0.12035,,1,16,0.0002448,
0.25,3.75,0.12034,,1,15,0.00026775,
0.25,3.5,0.12034,,1,14,0.0002499,
0.25,3.25,0.12033,,1,13,0.0002652,
0.25,3,0.12032,,1,12,0.0002754,
0.25,2.75,0.12028,,1,11,0.00036465,
0.25,2.5,0.1202,,1,10,0.0005355,
0.25,2.25,0.12008,,1,9,0.00075735,
0.25,2,0.11988,,1,8,0.0010812,
0.25,1.75,0.11961,,1,7,0.001428,
0.25,1.5,0.11926,,1,6,0.0017595,
0.25,1.25,0.11885,,1,5,0.001989,
0.25,1,0.11838,,1,4,0.0020706,
0.25,0.75,0.11792,,1,3,0.00190485,
0.25,0.5,0.11753,,1,2,0.0014688,
0.25,0.25,0.11725,,1,1,0.0008058,
